---
source: spade-tests/src/parser.rs
---
#[wal_trace(clk=x, clk=x)]
struct T {}


error: clk specified multiple times
  ┌─ testinput:1:20
  │
1 │ #[wal_trace(clk=x, clk=x)]
  │                 -  ^^^ Duplicate key
  │                 │   
  │                 Previously specified here


