---
source: spade-tests/src/typeinference.rs
---
fn test(x: int<32>) -> bool {
    assert x;
    true
}

error: Expected type bool, got int<32>
  ┌─ testinput:2:12
  │
2 │     assert x;
  │            ^ Expected bool here


